{
  "0": {
    "nom": "-",
    "categorie": "-",
    "prix": "-",
    "Emplacement": "-",
    "Date d'ajout": "-"
  },
  "6": {
    "nom": "Guerre Mondiale",
    "categorie": "Histoire",
    "prix": "60",
    "Emplacement": "E-10",
    "Date d'ajout": "04/12/2021 23:39"
  },
  "3463195052820737897": {
    "nom": "dragon ball z",
    "categorie": "Manga",
    "prix": "80",
    "Emplacement": "E-4",
    "Date d'ajout": "2021-12-08 22:22"
  }
}